azjakuma_missiontree_1_pt_1 = {
	slot = 1
	generic = no
	ai = yes
	potential = {
		tag = Y01
	}
	has_country_shield = yes

	#conquer Hulibao
	Y01_harimari_fort = {
		icon = mission_fortify_rajputana
		position = 2
		required_missions = { Y01_ajgriijarul_training }
		provinces_to_highlight = {
			area = moryokang_area
			NOT = {
				owned_by = ROOT
			}
		}

		trigger = {
			owns_all_provinces = {
				area = moryokang_area
			}
		}
		effect = {
			4901 = {
				add_province_modifier = {
					name = azjakuma_southern_bulwark
					duration = -1	#18250 #50 years
				}
			}
		}
	}

	Y01_direct_control_tribute = {
		icon = mission_kowtow
		position = 3
		required_missions = { Y01_harimari_fort }
		provinces_to_highlight = {
			province_id = 4813 #yuantsai
		}

		trigger = {
			if = {
				limit = {
					Y89 = { #Yuantsai
						exists = yes
					}
					OR = {
						Y01 = {
							is_subject_of_type_with_overlord = {
							who = Y89 #yuantsai
							type = tributary_state
							}
						}
						is_subject = no
					}
				}
				Y89 = { #Yuantsai
					has_opinion = {
						who = ROOT
						value = 100
					}
					has_spy_network_from = {
						who = ROOT
						value = 20
					}
				}
			}
			else_if = {
				limit = {
					Y89 = {
						exists = yes
					}
				}
				dip_power = 25
			}
		}
		effect = {
			if = {
				limit = {
					Y89 = { #Yuantsai
						exists = yes
					}
					OR = {
						Y01 = {
							is_subject_of_type_with_overlord = {
							who = Y89 #Yuantsai
							type = tributary_state
							}
						}
						is_subject = no
					}
				}
				country_event = {
					id = flavor_azjakuma.2650
				}
			}
			else = {
				mogutian_area = {
					limit = {
						NOT = { is_core = ROOT }
						NOT = { owned_by = ROOT }
					}
					add_permanent_claim = ROOT
				}
			}
		}
	}

	Y01_expand_record_keeping = {
		icon = reform_the_nomocanon
		position = 5
		required_missions = { Y01_direct_control_tribute }
		provinces_to_highlight = {
			province_id = 4813
		}

		trigger = {
			4813 = {
				country_or_non_sovereign_subject_holds = ROOT
				has_production_building_trigger = yes
				base_production = 10
			}
		}
		effect = {
			add_country_modifier = {
				name = azjakuma_expanded_record_keeping
				duration = 14600 #40 years
			}
		}
	}
}

azjakuma_missiontree_2_pt_1 = {
	slot = 2
	generic = no
	ai = yes
	potential = {
		tag = Y01
	}
	has_country_shield = yes

	Y01_ajgriijarul_training = {
		icon = mission_oni
		position = 1
		required_missions = { }
		provinces_to_highlight = {
			province_id = 4829
		}

		trigger = {
			4829 = {
				development = 15
			}
		}
		effect = {
			add_country_modifier = {
				name = azjakuma_bright_claw_warriors
				duration = 3650 #10 years
			}
		}
	}	
	
	Y01_expel_rebellious = {
		icon = mission_hanged_tree
		position = 3
		required_missions = { Y01_harimari_fort }
		provinces_to_highlight = {
			area = moryokang_area
			NOT = {
				OR = {
					culture = hill_yan
					culture = horned_ogre
				}
				religion = lefthand_path
			}
		}

		trigger = {
			moryokang_area = {
				owned_by = Y01 #azjakuma
				has_owner_religion = yes
				OR = {
					culture = horned_ogre
					culture = hill_yan
				}
				type = all
			}
		}
		effect = {
			moryokang_area = {
				limit = {
					nationalism = 1
				}
				add_nationalism = -15
			}
		}
	}

	Y01_cursed_souls_khelorvalshi = {
		icon = mission_blood_sacrifice
		position = 4
		required_missions = { Y01_expel_rebellious Y01_infiltrate_eunuch_council }
		provinces_to_highlight = {
			province_id = 4848
		}
		
		trigger = {
			owns_core_province = 4848
		}
		effect = {
			4848 = {
				change_culture = horned_ogre
				change_religion = ROOT
				change_province_name = "Khelorvalshi"
				hidden_effect = {
					rename_capital = "Khelorvalshi"
				}
			}
			country_event = {
				id = flavor_azjakuma.30
			}
		}
	}

	Y01_restoring_khelorvalshi = {
		icon = public_works
		position = 5
		required_missions = { Y01_cursed_souls_khelorvalshi }
		provinces_to_highlight = {
			province_id = 4848
		}
		
		trigger = {
			owns_core_province = 4848
			4848 = {
				development = 12
			}
		}
		effect = {
			4848 = {
				add_permanent_province_modifier = {
					name = azjakuma_shirgrii
					duration = -1
				}
			}
		}
	}

	Y01_khelorvalshi_libraries = {
		icon = found_the_vatican_library
		position = 6
		required_missions = { Y01_expand_record_keeping Y01_restoring_khelorvalshi }
		provinces_to_highlight = { }

		trigger = {
			owns_core_province = 4848
			adm_power = 85
			dip_power = 85
			mil_power = 85
		}
		effect = {
			add_adm_power = -85
			add_dip_power = -85
			add_mil_power = -85
			country_event = {
				id = flavor_azjakuma.31
			}
		}
	}
}

azjakuma_missiontree_3_pt_1 = {
	slot = 3
	generic = no
	ai = yes
	potential = {
		tag = Y01
	}
	has_country_shield = yes

	Y01_chumijemoya_spymasters = {
		icon = mission_whisper
		position = 2
		required_missions = { Y01_ajgriijarul_training }
		provinces_to_highlight = {
			province_id = 4831
		}

		trigger = {
			4831 = {
				development = 12
			}
			OR = { 
				spymaster = 1
				estate_loyalty = {
					estate = estate_chumijemoya
					loyalty = 60
				}
			}
		}
		effect = {
			custom_tooltip = azjakuma_silent_mist_spymasters_tooltip
			hidden_effect = {
				set_country_flag = oni_silent_mist_privilege
				5409 = {
					add_province_modifier = {
						name = azjakuma_aikogeoke_natives
						duration = -1
						hidden = yes
					}
				}
			}
		}
	}

	Y01_infiltrate_eunuch_council = {
		icon = mission_captured
		position = 3
		required_missions = { Y01_chumijemoya_spymasters }
		provinces_to_highlight = { }

		trigger = {
			OR = {
				4848 = {
					owner = {
						has_spy_network_from = {
							who = ROOT
							value = 40
						}
					}
				}
				owns = 4848
			}
		}
		effect = {
			custom_tooltip = azjakuma_perma_claims_on_owned_tooltip
			hidden_effect = {
				jinqiu_area = {
					limit = {
						NOT = { is_core = ROOT }
						NOT = { owned_by = ROOT }
					}
					add_permanent_claim = ROOT
				}
				balrijin_area = {
					limit = {
						NOT = { is_core = ROOT }
						NOT = { owned_by = ROOT }
						country_or_non_sovereign_subject_holds = Y02
					}
					add_permanent_claim = ROOT
				}
			}
		}
	}

	Y01_winning_over_birb = {
		icon = mission_merchant_trip
		position = 5
		required_missions = { Y01_bring_birb_to_heel }
		provinces_to_highlight = { }

		trigger = {
			custom_trigger_tooltip = {
				tooltip = azjakuma_birb_conquered_decade_tooltip
				has_country_flag = birb_conquered_decade
			}
			accepted_culture = shuvuush
		}

		effect = {
			custom_tooltip = azjakuma_birb_rejection_to_caution_tooltip
			hidden_effect = {
				every_owned_province = {
					limit = {
						has_province_modifier = azjakuma_birb_rejection #-3 mis strength
					}
					remove_province_modifier = azjakuma_birb_rejection
					add_permanent_province_modifier = {
						name = azjakuma_birb_caution
						duration = -1
					}
				}
				clr_country_flag = oni_birb_rejection_setup
				set_country_flag = oni_birb_caution_setup
				country_event = { #event that removes all negative modifiers from shuvuush
					id = flavor_azjakuma.23
					days = 1825 #5 years
					random = 3650 #10 years
				}
			}
		}
	}
	
	Y01_birb_auxillaries = {
		icon = mission_chinese_general_riding
		position = 6
		required_missions = { Y01_winning_over_birb }
		provinces_to_highlight = {
			NOT = { base_manpower = 3 }
			OR = {
				province_id = 5407
				province_id = 5411
				province_id = 5410
				province_id = 5413
				province_id = 5414
				province_id = 5412
				province_id = 5415
				province_id = 5416
				province_id = 5417
			}
		}

		trigger = {
			custom_trigger_tooltip = {
				tooltip = birb_aux_tooltip
				5407 = {
					country_or_non_sovereign_subject_holds = ROOT
					base_manpower = 3
				}
				5411 = {
					country_or_non_sovereign_subject_holds = ROOT
					base_manpower = 3
				}
				5410 = {
					country_or_non_sovereign_subject_holds = ROOT
					base_manpower = 3
				}
				5413 = {
					country_or_non_sovereign_subject_holds = ROOT
					base_manpower = 3
				}
				5414 = {
					country_or_non_sovereign_subject_holds = ROOT
					base_manpower = 3
				}
				5412 = {
					country_or_non_sovereign_subject_holds = ROOT
					base_manpower = 3
				}
				5415 = {
					country_or_non_sovereign_subject_holds = ROOT
					base_manpower = 3
				}
				5416 = {
					country_or_non_sovereign_subject_holds = ROOT
					base_manpower = 3
				}
				5417 = {
					country_or_non_sovereign_subject_holds = ROOT
					base_manpower = 3
				}
			}
			
			# calc_true_if = {
			# 	amount = 9
			# 	all_owned_province = {
			# 		region = shuvuushudi_region
			# 		trade_goods = grain
			# 		base_manpower = 3
			# 	}
			# }
		}

		effect = {
			custom_tooltip = oni_shuvuush_auxillaries_tooltip
			set_country_flag = oni_shuvuush_auxillaries
		}
	}

	Y01_way_forward = {
		icon = mission_japanese_fort
		position = 7
		required_missions = { Y01_khelorvalshi_libraries Y01_birb_auxillaries Y01_defend_north }
		provinces_to_highlight = { }

		trigger = {
			stability = 2
			OR = {
				has_reform = internal_mission_reform
				has_reform = external_mission_reform
				has_reform = mission_to_civilize_reform
			}
		}
		effect = {
			country_event = {
				id = flavor_azjakuma.32
			}
		}
	}
}

azjakuma_missiontree_4_pt_1 = {
	slot = 4
	generic = no
	ai = yes
	potential = {
		tag = Y01
	}
	has_country_shield = yes

	Y01_aikogeoke = {
		icon = claim_the_borderlands
		position = 3
		required_missions = { Y01_chumijemoya_spymasters }
		provinces_to_highlight = {
			province_id = 5409
		}

		trigger = {
			5409 = {
				infantry_in_province = 1
				infantry_in_province = Y01
			}
		}

		effect = {
			if = {
				limit = {
					5409 = {
						is_city = no
						is_colony = no
					}
				}
				5409 = {
					add_siberian_construction = 500
					kill_units = {
						who = Y01
						type = infantry
						amount = 1
					}
				}
			}
		}
	}

	Y01_bring_birb_to_heel = {
		icon = mission_non-western_cavalry_raid
		position = 4
		required_missions = { Y01_aikogeoke }
		provinces_to_highlight = {
			OR = {
				area = choogiaza_area
				area = yunghuun_area
				province_id = 5412 #Tuiinond
				province_id = 5415 #Hoginuug
			}
			NOT = {
				owned_by = ROOT
			}
		}

		trigger = {
			custom_trigger_tooltip = {
				tooltip = azjakuma_bring_birb_to_heel_tooltip
				choogiaza_area = {
					type = all
					country_or_non_sovereign_subject_holds = ROOT
				}
				yunghuun_area = {
					type = all
					country_or_non_sovereign_subject_holds = ROOT
				}
				5412 = {
					country_or_non_sovereign_subject_holds = ROOT
				}
				5415 = {
					country_or_non_sovereign_subject_holds = ROOT
				}
			}
		}
		effect = {
			add_stability_or_adm_power = yes
			hidden_effect = {
				country_event = {
					id = flavor_azjakuma.103
					days = 3650
				}
			}
		}
	}
}

azjakuma_missiontree_5_pt_1 = {
	slot = 5
	generic = no
	ai = yes
	potential = {
		tag = Y01
	}
	has_country_shield = yes

	Y01_adapting_oni_state = {
		icon = mission_asian_city
		position = 1
		required_missions = { }
		provinces_to_highlight = { }

		trigger = {
			treasury = 200
		}
		effect = {
			add_treasury = -200
			hidden_effect = {
				every_owned_province = {
					limit = {
						region = demon_hills_region
						has_terrain = hills
					}
					add_province_modifier = {
						name = azjakuma_expanding_infrastructure
						duration = 18250
					}
				}
			}
			custom_tooltip = azjakuma_adapting_oni_state_tooltip
		}
	}

	Y01_kabiurgarko_tributary = {
		icon = mission_zambezi_gold
		position = 2
		required_missions = { Y01_adapting_oni_state }
		provinces_to_highlight = {
			province_id = 4828
		}

		trigger = {
			4828 = {
				owned_by = ROOT
				base_production = 8
			}
		}
		effect = {
			4828 = {
				add_province_modifier = {
					name = azjakuma_expanded_tributary_system
					duration = 9125
				}
			}
		}
	}

	Y01_teimarji_spring = {
		icon = mission_sw_torquoise_mining
		position = 3
		required_missions = { Y01_kabiurgarko_tributary }
		provinces_to_highlight = {
			province_id = 5430
		}

		trigger = {
			5430 ={
				development = 20
			}
			estate_loyalty = {
				estate = estate_shinukhorchi
				loyalty = 60
			}
			estate_influence = {
				estate = estate_shinukhorchi
				influence = 50
			}
		}
		effect = {
			custom_tooltip = shinukhorchi_magic_korashi_unlock_tooltip
			hidden_effect = {
				set_country_flag = korashi_talismans_unlocked
			}
		}
	}

	Y01_golden_gates = {
		icon = mission_african_gold
		position = 4
		required_missions = { Y01_teimarji_spring }
		provinces_to_highlight = {
			province_id = 4828
		}

		trigger = {
			4828 = {
				has_trade_building_trigger = yes
			}
			estate_influence = {
				estate = estate_kabiurgarko
				influence = 50
			}
		}
		effect = {
			4828 = {
				center_of_trade = 1
			}
		}
	}

	Y01_breadbasket_north = {
		icon = mission_a_million_rice_fields
		position = 5
		required_missions = { Y01_bring_birb_to_heel Y01_golden_gates }
		provinces_to_highlight = { }

		trigger = {
			years_of_income = 1.5
			adm_power = 100
			dip_power = 50
		}
		effect = {
			add_years_of_income = -1.5
			add_adm_power = -100
			add_dip_power = -50
			custom_tooltip = azjakuma_breadbasket_north_tooltip
			hidden_effect = {
				every_owned_province = {
					limit = {
						region = shuvuushudi_region
						trade_goods = grain
					}
					add_base_production = 2
				}
				set_country_flag = oni_birb_immigration_allowed
			}
		}
	}

	Y01_defend_north = {
		icon = alpine_defenses
		position = 6
		required_missions = { Y01_breadbasket_north }

		trigger = {
			any_owned_province = {
				area = yambioka_area
				fort_level = 2
			}
		}
		effect = {
			custom_tooltip = azjakuma_fortify_north_tooltip
			hidden_effect = {
				random_owned_province = {
					limit = {
						area = yambioka_area
						fort_level = 2
					}
					add_province_modifier = {
						name = azjakuma_defend_north
						duration = -1	#9125
					}
				}
			}
		}
	}
}

azjakuma_missiontree_1_pt_2 = {
	slot = 1
	generic = no
	ai = yes
	potential = {
		tag = Y01
		has_country_flag = oni_demon_empire_mission_unlock
	}
	has_country_shield = yes
	
	Y01_southern_rethagi = {
		icon = mission_jungle_pilgrim
		position = 10
		required_missions = { Y01_bianfang_faithful }
		
		provinces_to_highlight = {
			OR = {
				AND = {
					exists = Y23
					is_capital_of = Y23
					NOT = { owner = { is_subject_of = ROOT } }
				}
				AND = {
					superregion = yanshen_superregion
					has_terrain = jungle
					NOT = { country_or_non_sovereign_subject_holds = ROOT }
				}
			}
		}
		
		trigger = {
			owns_all_provinces = {
				superregion = yanshen_superregion
				has_terrain = jungle
			}
			Y23 = {
				OR = {
					exists = no
					is_subject_of = ROOT
				}
			}
		}
		
		effect = {
			country_event = {
				id = flavor_azjakuma.2654 #GOVERNANCE OF THE SOUTHERN JUNGLE
			}
		}
	}
	
	Y01_down_the_coast = {
		icon = mission_corsairs_of_the_north_sea
		position = 11
		required_missions = { Y01_southern_rethagi }
		
		provinces_to_highlight = {
			OR = {
				area = jyutsai_area
				area = wanglam_area
				area = hungngon_area
				area = xiyun_area
				area = gungi_area
				area = luoyip_area
				area = iongsim_area
				area = hongnguan_area
				area = mulim_area
			}
			NOT = { country_or_non_sovereign_subject_holds = ROOT }
		}
		
		trigger = {
			owns_all_provinces = {
				OR = {
					area = jyutsai_area
					area = wanglam_area
					area = hungngon_area
					area = xiyun_area
					area = gungi_area
					area = luoyip_area
					area = iongsim_area
					area = hongnguan_area
					area = mulim_area
				}
			}
			years_of_income = 0.25
		}
		
		effect = {
			add_years_of_income = -0.25
			if = {
				limit = { Y23 = { is_subject_of = ROOT } }
				Y23 = {
					add_country_modifier = {
						name = azjakuma_oni_conversion
						duration = 3650
					}
				}
			}
			else = {
				hidden_effect = {
					jyutsai_area = {
						add_province_modifier = {
							name = azjakuma_oni_conversion_province
							duration = 3650
						}
					}
					wanglam_area = {
						add_province_modifier = {
							name = azjakuma_oni_conversion_province
							duration = 3650
						}
					}
					hungngon_area = {
						add_province_modifier = {
							name = azjakuma_oni_conversion_province
							duration = 3650
						}
					}
					xiyun_area = {
						add_province_modifier = {
							name = azjakuma_oni_conversion_province
							duration = 3650
						}
					}
					gungi_area = {
						add_province_modifier = {
							name = azjakuma_oni_conversion_province
							duration = 3650
						}
					}
					luoyip_area = {
						add_province_modifier = {
							name = azjakuma_oni_conversion_province
							duration = 3650
						}
					}
					iongsim_area = {
						add_province_modifier = {
							name = azjakuma_oni_conversion_province
							duration = 3650
						}
					}
					hongnguan_area = {
						add_province_modifier = {
							name = azjakuma_oni_conversion_province
							duration = 3650
						}
					}
					mulim_area = {
						add_province_modifier = {
							name = azjakuma_oni_conversion_province
							duration = 3650
						}
					}
				}
			}
		}
	}
	
	Y01_converting_the_south = {
		icon = mission_forest_pilgrim
		position = 12
		required_missions = { Y01_down_the_coast }
		
		provinces_to_highlight = {
			OR = {
				area = jyutsai_area
				area = wanglam_area
				area = hungngon_area
				area = xiyun_area
				area = gungi_area
				area = luoyip_area
				area = iongsim_area
				area = hongnguan_area
				area = mulim_area
			}
			NOT = { religion = lefthand_path }
		}
		
		trigger = {
			calc_true_if = {
				amount = 30
				all_province = {
					OR = {
						area = jyutsai_area
						area = wanglam_area
						area = hungngon_area
						area = xiyun_area
						area = gungi_area
						area = luoyip_area
						area = iongsim_area
						area = hongnguan_area
						area = mulim_area
					}
					religion = lefthand_path
				}
			}
		}
		
		effect = {
			custom_tooltip = south_yan_remove_resistance_tooltip
			hidden_effect = {
				jyutsai_area = {
					remove_province_modifier = azjakuma_yanshen_resistance
					set_province_flag = azjakuma_yan_remove_modifier
				}
				wanglam_area = {
					remove_province_modifier = azjakuma_yanshen_resistance
					set_province_flag = azjakuma_yan_remove_modifier
				}
				hungngon_area = {
					remove_province_modifier = azjakuma_yanshen_resistance
					set_province_flag = azjakuma_yan_remove_modifier
				}
				xiyun_area = {
					remove_province_modifier = azjakuma_yanshen_resistance
					set_province_flag = azjakuma_yan_remove_modifier
				}
				gungi_area = {
					remove_province_modifier = azjakuma_yanshen_resistance
					set_province_flag = azjakuma_yan_remove_modifier
				}
				luoyip_area = {
					remove_province_modifier = azjakuma_yanshen_resistance
					set_province_flag = azjakuma_yan_remove_modifier
				}
				iongsim_area = {
					remove_province_modifier = azjakuma_yanshen_resistance
					set_province_flag = azjakuma_yan_remove_modifier
				}
				hongnguan_area = {
					remove_province_modifier = azjakuma_yanshen_resistance
					set_province_flag = azjakuma_yan_remove_modifier
				}
				mulim_area = {
					remove_province_modifier = azjakuma_yanshen_resistance
					set_province_flag = azjakuma_yan_remove_modifier
				}
			}
			add_stability_or_adm_power = yes
		}
	}
	
	Y01_jewel_of_the_yanhe = {
		icon = mission_city_prosperity
		position = 13
		required_missions = { Y01_converting_the_south Y01_down_the_river }
		
		provinces_to_highlight = {
			area = tianlou_area
			NOT = { owned_by = ROOT }
		}
		
		trigger = {
			tianlou_area = {
				type = all
				owned_by = ROOT
			}
		}
		
		effect = {
			add_prestige = 50
			add_power_projection = {
				type = mission_rewards_power_projection
				amount = 40
			}
		}
	}
	
	Y01_tamotch_of_yan = {
		icon = mission_empire
		position = 15
		required_missions = { Y01_jewel_of_the_yanhe }
		
		provinces_to_highlight = {
			OR = {
				area = beidugang_area
				area = beikyuan_area 
				area = jianzhong_area 
				area = xuanbing_area
				area = yiguan_area
				area = ningxiang_area
				area = erluxi_area
				area = liuminxiang_area
				area = jinjiang_area
				area = jiantsiang_area
			}
			NOT = { religion = lefthand_path }
		}
		
		trigger = {
			calc_true_if = {
				amount = 30
				all_province = {
					OR = {
						area = beidugang_area
						area = beikyuan_area 
						area = jianzhong_area 
						area = xuanbing_area
						area = yiguan_area
						area = ningxiang_area
						area = erluxi_area
						area = liuminxiang_area
						area = jinjiang_area
						area = jiantsiang_area
					}
					religion = lefthand_path
				}
			}
		}
		
		effect = {
			custom_tooltip = oni_remove_yanshen_resistance_tooltip
			hidden_effect = { # this tooltip has the possibility to be gigantic
				every_owned_province = { # idk if all meant all or all owned 
					limit = { has_province_modifier = azjakuma_yanshen_resistance }
					remove_province_modifier = azjakuma_yanshen_resistance
					set_country_flag = yan_no_resistance
				}
			}
		}
	}

	Y01_temples_of_yanshen = {
		icon = mission_temple_patronage
		position = 16
		required_missions = { Y01_tamotch_of_yan }
		
		provinces_to_highlight = {
			OR = {
				province_id = 4951
				province_id = 4839
				province_id = 4859
				province_id = 4949
				province_id = 4930
				province_id = 4979
				province_id = 4925
			}
			NOT = { has_province_modifier = corrupted_temple_complex }
		}
		
		trigger = {
			custom_trigger_tooltip = {
				tooltip = oni_all_temples_yanshen_but_tianlou_tooltip # make a tooltip for this
				4951 = {
					has_province_modifier = corrupted_temple_complex
				}
				4839 = {
					has_province_modifier = corrupted_temple_complex
				}
				4859 = {
					has_province_modifier = corrupted_temple_complex
				}
				4949 = {
					has_province_modifier = corrupted_temple_complex
				}
				4930 = {
					has_province_modifier = corrupted_temple_complex
				}
				4979 = {
					has_province_modifier = corrupted_temple_complex
				}
				4925 = {
					has_province_modifier = corrupted_temple_complex
				}
			}
		}
		
		effect = {
			4951 = {
				add_ogre_minority_size_effect = yes
				add_permanent_province_modifier = {
					name = azjakuma_fortified_temple
					duration = -1
				}
			}
			4839 = {
				add_ogre_minority_size_effect = yes
				add_permanent_province_modifier = {
					name = azjakuma_fortified_temple
					duration = -1
				}
			}
			4859 = {
				add_ogre_minority_size_effect = yes
				add_permanent_province_modifier = {
					name = azjakuma_fortified_temple
					duration = -1
				}
			}
			4949 = {
				add_ogre_minority_size_effect = yes
				add_permanent_province_modifier = {
					name = azjakuma_fortified_temple
					duration = -1
				}
			}
			4930 = {
				add_ogre_minority_size_effect = yes
				add_permanent_province_modifier = {
					name = azjakuma_fortified_temple
					duration = -1
				}
			}
			4979 = {
				add_ogre_minority_size_effect = yes
				add_permanent_province_modifier = {
					name = azjakuma_fortified_temple
					duration = -1
				}
			}
			4925 = {
				add_ogre_minority_size_effect = yes
				add_permanent_province_modifier = {
					name = azjakuma_fortified_temple
					duration = -1
				}
			}
		}
	}
}

azjakuma_missiontree_2_pt_2 = {
	slot = 2
	generic = no
	ai = yes
	potential = {
		tag = Y01
		has_country_flag = oni_demon_empire_mission_unlock
	}
	has_country_shield = yes

	Y01_tyrants_of_yanshen = {
		icon = mission_thinking_king
		position = 8
		required_missions = { Y01_way_forward }
		
		provinces_to_highlight = {
			OR = {
				area = bianfang_area
				area = bianyuan_area
				area = lamzung_area
				area = jiangszun_area
			}
			NOT = { country_or_non_sovereign_subject_holds = ROOT }
		}

		trigger = {
			bianfang_area = {
				type = all
				country_or_non_sovereign_subject_holds = ROOT
			}
			bianyuan_area = {
				type = all
				country_or_non_sovereign_subject_holds = ROOT
			}
			lamzung_area = {
				type = all
				country_or_non_sovereign_subject_holds = ROOT
			}
			jiangszun_area = {
				type = all
				country_or_non_sovereign_subject_holds = ROOT
			}
		}
		
		effect = {
			bianfang_area = {
				limit = {
					is_core = Y09
					NOT = { religion = lefthand_path }
				}
				add_province_modifier = {
					name = azjakuma_oni_conversion_province
					duration = 3650
				}
			}
			bianyuan_area = {
				limit = {
					is_core = Y09
					NOT = { religion = lefthand_path }
				}
				add_province_modifier = {
					name = azjakuma_oni_conversion_province
					duration = 3650
				}
			}
			lamzung_area = {
				limit = {
					is_core = Y09
					NOT = { religion = lefthand_path }
				}
				add_province_modifier = {
					name = azjakuma_oni_conversion_province
					duration = 3650
				}
			}
			jiangszun_area = {
				limit = {
					is_core = Y09
					NOT = { religion = lefthand_path }
				}
				add_province_modifier = {
					name = azjakuma_oni_conversion_province
					duration = 3650
				}
			}
		}
	}
	
	Y01_bianfang_faithful = {
		icon = mission_pray_light
		position = 9
		required_missions = { Y01_tyrants_of_yanshen }
		
		provinces_to_highlight = {
			OR = {
				area = bianfang_area
				area = bianyuan_area
				area = lamzung_area
				area = jiangszun_area
			}
			NOT = { religion = lefthand_path }
		}
		
		trigger = {
			calc_true_if = {
				amount = 10
				all_province = {
					OR = {
						area = bianfang_area
						area = bianyuan_area
						area = lamzung_area
						area = jiangszun_area
					}
					religion = lefthand_path
				}
			}
		}
		
		effect = {
			custom_tooltip = bianfang_remove_resistance_tooltip
			hidden_effect = {
				bianfang_area = {
					remove_province_modifier = azjakuma_yanshen_resistance
					set_province_flag = azjakuma_yan_remove_modifier
				}
				bianyuan_area = {
					remove_province_modifier = azjakuma_yanshen_resistance
					set_province_flag = azjakuma_yan_remove_modifier
				}
				lamzung_area = {
					remove_province_modifier = azjakuma_yanshen_resistance
					set_province_flag = azjakuma_yan_remove_modifier
				}
				jiangszun_area = {
					remove_province_modifier = azjakuma_yanshen_resistance
					set_province_flag = azjakuma_yan_remove_modifier
				}
			}
			# define_advisor = {
			# 	type = diplomat
			# 	skill = 1
			# 	culture = river_yan
			# 	religion = lefthand_path
			# }
		}
	}
	
	Y01_league_of_schemers = {
		icon = mission_whisper
		position = 10
		required_missions = { Y01_bianfang_faithful }
		
		provinces_to_highlight = {
			OR = {
				area = anjiang_area
				area = linyuan_area
				area = yanzhong_area
			}
			NOT = {
				owned_by = ROOT
				owner = {
					tag = Y10
					OR = {
						alliance_with = ROOT
						is_subject_of = ROOT
					}
				}
			}
		}
		
		trigger = {
			anjiang_area = {
				type = all
				OR = {
					owned_by = ROOT
					owner = {
						tag = Y10
						OR = {
							alliance_with = ROOT
							is_subject_of = ROOT
						}
					}
				}
			}
			linyuan_area = {
				type = all
				OR = {
					owned_by = ROOT
					owner = {
						tag = Y10
						OR = {
							alliance_with = ROOT
							is_subject_of = ROOT
						}
					}
				}
			}
			yanzhong_area = {
				type = all
				OR = {
					owned_by = ROOT
					owner = {
						tag = Y10
						OR = {
							alliance_with = ROOT
							is_subject_of = ROOT
						}
					}
				}
			}
		}
		effect = {
			country_event = {
				id = flavor_azjakuma.2655
			}
		}
	}
	
	Y01_yanszin = {
		icon = mission_women_prayer
		position = 11
		required_missions = { Y01_league_of_schemers }
		
		provinces_to_highlight = {
			OR = {
				area = anjiang_area
				area = linyuan_area
				area = yanzhong_area
			}
			NOT = {
				AND = {
					country_or_non_sovereign_subject_holds = ROOT
					religion = lefthand_path
				}
			}
		}
		
		trigger = {
			anjiang_area = {
				type = all
				country_or_non_sovereign_subject_holds = ROOT
				religion = lefthand_path
			}
			linyuan_area = {
				type = all
				country_or_non_sovereign_subject_holds = ROOT
				religion = lefthand_path
			}
			yanzhong_area = {
				type = all
				country_or_non_sovereign_subject_holds = ROOT
				religion = lefthand_path
			}
		}
		
		effect = {
			custom_tooltip = league_remove_resistance_tooltip
			hidden_effect = {
				anjiang_area = {
					remove_province_modifier = azjakuma_league_resistance
				}
				linyuan_area = {
					remove_province_modifier = azjakuma_league_resistance
				}
				yanzhong_area = {
					remove_province_modifier = azjakuma_league_resistance
				}
			}
		}
	}
	
	Y01_down_the_river = {
		icon = mission_invade_island
		position = 12
		required_missions = { Y01_yanszin }
		
		provinces_to_highlight = {
			OR = {
				area = ningxiang_area
				area = erluxi_area
				area = liuminxiang_area
				area = beikyuan_area
				area = jinjiang_area
			}
			NOT = { owned_by = ROOT }
		}
		
		trigger = {
			ningxiang_area = {
				type = all
				owned_by = ROOT
			}
			erluxi_area = {
				type = all
				owned_by = ROOT
			}
			liuminxiang_area = {
				type = all
				owned_by = ROOT
			}
			beikyuan_area = {
				type = all
				owned_by = ROOT
			}
			jinjiang_area = {
				type = all
				owned_by = ROOT
			}
		}
		
		effect = {
			add_country_modifier = {
				name = azjakuma_river_trade
				duration = 9125
			}
		}
	}
	
	Y01_river_followers = {
		icon = mission_advance_to_the_dnieper
		position = 13
		required_missions = { Y01_down_the_river }
		
		provinces_to_highlight = {
			OR = {
				area = ningxiang_area
				area = erluxi_area
				area = liuminxiang_area
				area = beikyuan_area
				area = jinjiang_area
				area = jiantsiang_area
			}
			NOT = { religion = lefthand_path }
		}
		
		trigger = {
			calc_true_if = {
				amount = 15
				all_province = {
					OR = {
						area = ningxiang_area
						area = erluxi_area
						area = liuminxiang_area
						area = beikyuan_area
						area = jinjiang_area
						area = jiantsiang_area
					}
					religion = lefthand_path
				}
			}
		}
		
		effect = {
			custom_tooltip = river_yan_remove_resistance_tooltip
			hidden_effect = {
				ningxiang_area = {
					remove_province_modifier = azjakuma_yanshen_resistance
					set_province_flag = azjakuma_yan_remove_modifier
				}
				erluxi_area = {
					remove_province_modifier = azjakuma_yanshen_resistance
					set_province_flag = azjakuma_yan_remove_modifier
				}
				liuminxiang_area = {
					remove_province_modifier = azjakuma_yanshen_resistance
					set_province_flag = azjakuma_yan_remove_modifier
				}
				beikyuan_area = {
					remove_province_modifier = azjakuma_yanshen_resistance
					set_province_flag = azjakuma_yan_remove_modifier
				}
				jinjiang_area = {
					remove_province_modifier = azjakuma_yanshen_resistance
					set_province_flag = azjakuma_yan_remove_modifier
				}
				jiantsiang_area = {
					remove_province_modifier = azjakuma_yanshen_resistance
					set_province_flag = azjakuma_yan_remove_modifier
				}
			}
		}
	}
	
	Y01_true_oni_leader = {
		icon = mission_mage_general
		position = 14
		required_missions = { Y01_river_followers }
		
		trigger = {
			ruler_has_personality = mage_personality
		}
		
		effect = {
			add_ruler_modifier = { # this will probably be empty cause the modifier isn't real
				name = azjakuma_powerful_tamongor
				duration = -1
			}
			hidden_effect = {
				update_magic_study_experience_modifier = { value = 20 } # this gonna get removed when ruler dies, probably set ruler flag to check
			}
		}
	}
	
	Y01_rituals_of_khelorvalshi = {
		icon = mission_magic_tower
		position = 15
		required_missions = { Y01_true_oni_leader }
		
		provinces_to_highlight = {
			area = jinqiu_area
			NOT = {
				development_in_provinces = {
					value = 45
					area = jinqiu_area
				}
			}
		}
		
		trigger = {
			development_in_provinces = {
				value = 45
				area = jinqiu_area
			}
			estate_loyalty = {
				estate = estate_khelorvalshi
				loyalty = 50
			}
			estate_influence = {
				estate = estate_khelorvalshi
				influence = 40
			}
		}
		
		effect = {
			custom_tooltip = azjakuma_life_extension_unlock_tooltip
			hidden_effect = {
				set_country_flag = lefthand_life_extension_unlocked
			}
		}
	}
	
	Y01_the_centerpiece = {
		icon = renaissance_city
		position = 17
		required_missions = { Y01_rituals_of_khelorvalshi Y01_temples_of_yanshen }
		
		provinces_to_highlight = {
			province_id = 4871
			NOT = { has_province_modifier = corrupted_temple_complex }
		}
		
		trigger = {
			4871 = {
				has_province_modifier = corrupted_temple_complex
			}
		}
		
		effect = {
			4871 = {
				add_province_modifier = {
					name = azjakuma_ritual_preperations_one
					duration = 1825
				}
				add_ogre_minority_size_effect = yes
				add_ogre_minority_size_effect = yes	
			}
		}
	}
	
	Y01_eternal_tamongor = {
		icon = mission_delighted_mage
		position = 18
		required_missions = { Y01_the_centerpiece }
		
		trigger = {
			ruler_has_personality = immortal_personality # maybe this could be the scripted trigger ?
		}
		
		effect = {
			if = {
				limit = { crown_land_share = 95 }
				add_adm_power = 50
				add_dip_power = 50
				add_mil_power = 50
			}
			else = {
				take_estate_land_share_gigantic = { estate = all }
			}
			4871 = {
				add_province_modifier = {
					name = azjakuma_ritual_preperations_two
					duration = 1825
				}
			}
		}
	}
}

azjakuma_missiontree_3_pt_2 = {
	slot = 3
	generic = no
	ai = yes
	potential = {
		tag = Y01
		has_country_flag = oni_demon_empire_mission_unlock
	}
	has_country_shield = yes
	
	Y01_precursor_temples = {
		icon =  mission_magic_tower
		position = 8
		required_missions = { Y01_way_forward }
		
		trigger = {
			estate_loyalty = {
				estate = estate_khelorvalshi
				loyalty = 50
			}
			estate_influence = {
				estate = estate_khelorvalshi
				influence = 40
			}
		}
		
		effect = {
			custom_tooltip = unlock_temple_desecrators_oni_tooltip
			set_country_flag = azjakuma_unlock_corruption
			country_event = {
				id = flavor_azjakuma.35
				days = 300
			}
		}
	}
	
	Y01_new_purpose = {
		icon = mission_dark_book
		position = 9
		required_missions = { Y01_precursor_temples }
		
		trigger = {
			any_owned_province = {
				has_province_modifier = corrupted_temple_complex
			}
		}
		
		effect = {
			custom_tooltip = unlock_khlorvalshi_advanced_corruption
			hidden_effect = {
				set_country_flag = oni_halve_corruption_penalty # flag, could have the privilege check for mission_completed
			}
		}
	}
	
	Y01_temple_of_lamwun = {
		icon = mission_develop_the_capital
		position = 10
		required_missions = { Y01_new_purpose Y01_bianfang_faithful }
		
		provinces_to_highlight = {
			province_id = 4951
			NOT = {
				AND = {
					owned_by = ROOT
					development = 20
					num_of_times_improved_by_owner = 9
				}
			}
		}
		
		trigger = {
			4951 = {
				owned_by = ROOT
				development = 20
				num_of_times_improved_by_owner = 9
			}
		}
		
		effect = {
			4951 = {
				add_ogre_minority_size_effect = yes
				add_province_modifier = {
					name = azjakuma_fortified_temple
					duration = -1
				}
			}
		}
	}
	
	Y01_monks_of_jianxusi = {
		icon = mission_buddhist_monk_praying
		position = 11
		required_missions = { Y01_temple_of_lamwun }
		
		provinces_to_highlight = {
			province_id = 4811
			NOT = { owned_by = ROOT }
		}
		
		trigger = {
			4811 = {
				owned_by = ROOT
			}
		}
		
		effect = {
			country_event = {
				id = flavor_azjakuma.2600
			}
		}
	}
	
	Y01_teimarji_mines = {
		icon = mission_sw_torquoise_mining
		position = 13
		required_missions = { Y01_monks_of_jianxusi Y01_quashing_dissent }
		
		provinces_to_highlight = {
			province_id = 4811
			NOT = { base_production = 12 }
		}
		
		trigger = {
			4811 = {
				base_production = 12
			}
		}
		
		effect = {
			add_estate_influence_modifier = {
				estate = estate_shinukhorchi
				influence = 10
				duration = 7300
				desc = teimarji_mines_desc
			}
			4811 = {
				add_province_modifier = {
					name = azjakuma_teimarji_mines
					duration = -1
				}
			}
		}
	}

	Y01_demon_warriors = {
		icon = gory_to_the_black_army
		position = 15
		required_missions = { Y01_teimarji_mines }

		trigger = {
			church_power = 200
		}
		
		effect = {
			set_country_flag = oni_demon_warriors_upgraded
			custom_tooltip = oni_demon_warriors_unlock
			add_church_power = -200
			if = {
				limit = { has_church_aspect = demon_warriors }
				remove_church_aspect = demon_warriors
				add_church_aspect = oni_demon_warriors
			}
		}
	}

	Y01_shadows_of_khappur = {
		icon = mission_assassination
		position = 16
		required_missions = { Y01_demon_warriors Y01_finishing_blow }
		
		provinces_to_highlight = {
			AND = {
				area = yambioka_area
				NOT = {
					development_in_provinces = {
						value = 39
						area = yambioka_area
					}
				}
			}
			AND = {
				province_id = 4620
				NOT = {
					AND = {
						country_or_non_sovereign_subject_holds = ROOT
						religion = lefthand_path
					}
				}
			}
		}
		
		trigger = {
			development_in_provinces = {
				value = 39
				area = yambioka_area
			}
			4620 = {
				country_or_non_sovereign_subject_holds = ROOT
				religion = lefthand_path
			}
			estate_loyalty = {
				estate = estate_chumijemoya
				loyalty = 60
			}
			estate_influence = {
				estate = estate_chumijemoya
				influence = 60
			}
		}
		
		effect = {
			custom_tooltip = unlock_khappur_sappers_tooltip
			# hidden_effect = {
			# 	set_country_flag = unlock_khappur_saooers
			# }
		}
	}
	
	Y01_final_subjugation = {
		icon = mission_burning_castle
		position = 18
		required_missions = { Y01_shadows_of_khappur }
		
		provinces_to_highlight = {
			region = xianjie_region
			NOT = { religion = lefthand_path }
		}
		
		trigger = {
			calc_true_if = {
				amount = 50
				xianjie_region = {
					type = all
					religion = lefthand_path
				}
			}
		}
		
		effect = {
			custom_tooltip = xianjie_remove_remaining_resistance_tooltip
			custom_tooltip = unlock_kenmanshir_tooltip
			custom_tooltip = merc_elite_no_army_prof_tt
			hidden_effect = {
				every_owned_province = {
					limit = {
						has_province_modifier = azjakuma_remaining_resistance
					}
					remove_province_modifier = azjakuma_remaining_resistance
				}
				set_country_flag = unlock_kenmanshir
			}
		}
	}
	
	#FINAL MISSION
	Y01_inu_tamokuma = {
		icon = mission_well_of_majesty
		position = 19
		required_missions = { Y01_eternal_tamongor Y01_final_subjugation Y01_masterful_tamongor }
		
		provinces_to_highlight = {
			OR = {
				region = demon_hills_region
				area = choogiaza_area
				area = yunghuun_area
				province_id = 5412
				province_id = 5415
				region = north_yanshen_region
				region = upper_yanshen_region
				region = lower_yanshen_region
				region = xianjie_region
				region = jade_mines_region
				# province_group = yanhe_spirit_area
			}
			NOT = { country_or_non_sovereign_subject_holds = ROOT }
		}
		
		trigger = {
			# can make a custom trigger tooltip
			NOT = { 4871 = { has_province_modifier = azjakuma_ritual_preperations_two } }
			# demon_hills_region = {
			# 	type = all
			# 	country_or_non_sovereign_subject_holds = ROOT
			# }
			yanshen_superregion = {
				type = all
				country_or_non_sovereign_subject_holds = ROOT
			}
			choogiaza_area = {
				type = all
				country_or_non_sovereign_subject_holds = ROOT
			}
			yunghuun_area = {
				type = all
				country_or_non_sovereign_subject_holds = ROOT
			}
			5412 = {
				country_or_non_sovereign_subject_holds = ROOT
			}
			5415 = {
				country_or_non_sovereign_subject_holds = ROOT
			}
			# north_yanshen_region = {
			# 	type = all
			# 	country_or_non_sovereign_subject_holds = ROOT
			# }
			# upper_yanshen_region = {
			# 	type = all
			# 	country_or_non_sovereign_subject_holds = ROOT
			# }
			# lower_yanshen_region = {
			# 	type = all
			# 	country_or_non_sovereign_subject_holds = ROOT
			# }
			xianjie_region = {
				type = all
				country_or_non_sovereign_subject_holds = ROOT
			}
			jade_mines_region = {
				type = all
				country_or_non_sovereign_subject_holds = ROOT
			}
			# yanhe_spirit_area = { #don't see a reason for this to be here
			# 	type = all
			# 	country_or_non_sovereign_subject_holds = ROOT
			# }
		}
		
		effect = {
			add_country_modifier = {
				name = azjakuma_ritual_modifier
				duration = -1 # no duration was stated, change if needed
			}
			# start spirit tide #added later, no unique content for now, maybe when I revist it
		}
	}
}

azjakuma_missiontree_4_pt_2 = {
	slot = 4
	generic = no
	ai = yes
	potential = {
		tag = Y01
		has_country_flag = oni_demon_empire_mission_unlock
	}
	has_country_shield = yes
	
	Y01_yanhe_buffer = {
		icon = mission_conquer_orissa_vij
		position = 10
		required_missions = { Y01_shamakhad_rethagi }
		
		provinces_to_highlight = {
			OR = {
				area = pharata_area
				area = ghilapur_area
				area = nadida_area
				area = ghatasak_area
				area = khasardul_area
				area = khamarutar_area
				area = tamvihar_area
				area = marudhoj_area
				area = raghajandi_area
			}
			NOT = { country_or_non_sovereign_subject_holds = ROOT }
		}
		
		trigger = { #all of shamakhad north of the yanhe, including provinces on the yanhe
			pharata_area = {
				type = all
				country_or_non_sovereign_subject_holds = ROOT
			}
			ghilapur_area = {
				type = all
				country_or_non_sovereign_subject_holds = ROOT
			}
			nadida_area = {
				type = all
				country_or_non_sovereign_subject_holds = ROOT
			}
			ghatasak_area = {
				type = all
				country_or_non_sovereign_subject_holds = ROOT
			}
			khasardul_area = {
				type = all
				country_or_non_sovereign_subject_holds = ROOT
			}
			khamarutar_area = {
				type = all
				country_or_non_sovereign_subject_holds = ROOT
			}
			tamvihar_area = {
				type = all
				country_or_non_sovereign_subject_holds = ROOT
			}
			marudhoj_area = {
				type = all
				country_or_non_sovereign_subject_holds = ROOT
			}
			raghajandi_area = {
				type = all
				country_or_non_sovereign_subject_holds = ROOT
			}
		}
		
		effect = {
			if = {
				limit = { 4633 = { owner = { is_subject_of = ROOT } } } # sir
				4633 = { cede_province = ROOT }
			}
			if = {
				limit = { 4546 = { owner = { is_subject_of = ROOT } } } #ghatasak
				4546 = { cede_province = ROOT }
			}
			if = {
				limit = { 4630 = { owner = { is_subject_of = ROOT } } } #sarilavhan
				4630 = { cede_province = ROOT }
			}
			add_stability_or_adm_power = yes
		}
	}
	
	Y01_quashing_dissent = {
		icon = mission_burning_man
		position = 12
		required_missions = { Y01_yanhe_buffer Y01_monks_of_jianxusi }
		
		provinces_to_highlight = {
			AND = {
				area = unbeksu_area
				NOT = {
					development_in_provinces = {
						value = 42
						area = unbeksu_area
					}
				}
			}
		}
		
		trigger = {
			development_in_provinces = {
				value = 42
				area = unbeksu_area
			}
			estate_loyalty = {
				estate = estate_ajgriijarul
				loyalty = 50
			}
			estate_influence = {
				estate = estate_ajgriijarul
				influence = 40
			}
		}
		
		effect = {
			custom_tooltip = unlock_rebel_deletion_magic_tooltip
			set_country_flag = unlock_ajgriijarul_rebel_supression
		}
	}
	
	Y01_xiaodao = {
		icon = mission_conquer_andhra_vij
		position = 13
		required_missions = { Y01_quashing_dissent }
		
		provinces_to_highlight = {
			province_id = 4559
			NOT = { owned_by = ROOT }
		}
		
		trigger = {
			4559 = {
				owned_by = ROOT
			}
		}
		
		effect = {
			add_country_modifier = {
				name = azjakuma_conquest_of_xiadao
				duration = 9125
			}
		}
	}
	
	Y01_yuanszi_governance = {
		icon = reform_bergordnung
		position = 14
		required_missions = { Y01_xiaodao }
		
		provinces_to_highlight = {
			exists = Y89
			is_capital_of = Y89
		}
		
		trigger = {
			# could be an if
			OR = {
				AND = {
					Y89 = {
						exists = yes
						is_subject_of = ROOT
						NOT = { is_subject_of_type = tributary_state }
						has_opinion = {
							who = ROOT
							value = 200
						}
					}
					adm_power = 100
					dip_power = 100
				}
				AND = {
					NOT = { exists = Y89 }
					adm_power = 125
					dip_power = 150
				}
			}
		}
		
		effect = {
			country_event = {
				id = flavor_azjakuma.2656
			}
		}
	}
	
	Y01_finishing_blow = {
		icon = mission_horse_siege
		position = 15
		required_missions = { Y01_yuanszi_governance }
		
		provinces_to_highlight = {
			OR = {
				area = fengling_area
				area = dekaipnam_area
				area = zhonglin_area
				area = jilin_anb_area
				area = aoshan_area
				area = tzingyuan_area
				area = dhurasara_area
				area = sarisung_area
			}
			NOT = { country_or_non_sovereign_subject_holds = ROOT }
		}
		
		trigger = {
			owns_all_provinces = {
				OR = {
					area = fengling_area
					area = dekaipnam_area
					area = zhonglin_area
					area = jilin_anb_area
					area = aoshan_area
					area = tzingyuan_area
					area = dhurasara_area
					area = sarisung_area
				}
			}
		}
		
		effect = {
			if = {
				limit = { 4612 = { owner = { is_subject_of = ROOT } } }
				4612 = { cede_province = ROOT }
			}
			custom_tooltip = azjakuma_dev_movement_tooltip
			hidden_effect = {
				random_owned_province = {
					limit = {
						region = xianjie_region
						development = 9
						NOT = { has_province_flag = razed_province_flag }
					}
					add_base_tax = -2
					add_base_production = -2
					add_base_manpower = -2
					add_devastation = 75
					set_province_flag = razed_province_flag
				}
				random_owned_province = {
					limit = {
						region = xianjie_region
						development = 9
						NOT = { has_province_flag = razed_province_flag }
					}
					add_base_tax = -2
					add_base_production = -2
					add_base_manpower = -2
					add_devastation = 75
					set_province_flag = razed_province_flag
				}
				random_owned_province = {
					limit = {
						region = xianjie_region
						development = 9
						NOT = { has_province_flag = razed_province_flag }
					}
					add_base_tax = -2
					add_base_production = -2
					add_base_manpower = -2
					add_devastation = 75
					set_province_flag = razed_province_flag
				}
				random_owned_province = {
					limit = {
						region = xianjie_region
						development = 9
						NOT = { has_province_flag = razed_province_flag }
					}
					add_base_tax = -2
					add_base_production = -2
					add_base_manpower = -2
					add_devastation = 75
					set_province_flag = razed_province_flag
				}
				random_owned_province = {
					limit = {
						region = xianjie_region
						development = 9
						NOT = { has_province_flag = razed_province_flag }
					}
					add_base_tax = -2
					add_base_production = -2
					add_base_manpower = -2
					add_devastation = 75
					set_province_flag = razed_province_flag
				}
				xianjie_region = {
					limit = { has_province_flag = razed_province_flag }
					clr_province_flag = razed_province_flag
				}
				5430 = {
					add_base_tax = 1
					add_base_production = 1
					add_base_manpower = 1
				}
				4831 = {
					add_base_tax = 1
					add_base_production = 1
					add_base_manpower = 1
				}
				4829 = {
					add_base_tax = 1
					add_base_production = 1
					add_base_manpower = 1
				}
				4828 = {
					add_base_tax = 1
					add_base_production = 1
					add_base_manpower = 1
				}
				4848 = {
					add_base_tax = 1
					add_base_production = 1
					add_base_manpower = 1
				}
			}
		}
	}
	
	Y01_great_shirgrii = {
		icon = mission_conquer_rewakantha
		position = 17
		required_missions = { Y01_finishing_blow Y01_goblinic_followers }
		
		provinces_to_highlight = {
			if = {
				limit = { Y01 = { dynasty = "Aromo" } }
				province_id = 5430
			}
			else_if = {
				limit = { Y01 = { dynasty = "Talshimok" } }
				province_id = 4831
			}
			else_if = {
				limit = { Y01 = { dynasty = "Surgoshi" } }
				province_id = 4829
			}
			else_if = {
				limit = { Y01 = { dynasty = "Moguruld" } }
				province_id = 4828
			}
			else_if = {
				limit = { Y01 = { dynasty = "Jishuro" } }
				province_id = 4848
			}
			else = {
			}
		}
		
		trigger = {
			if = {
				limit = { dynasty = "Aromo" }
				5430 = { owned_by = ROOT num_of_times_improved_by_owner = 15 }
			}
			else_if = {
				limit = { dynasty = "Talshimok" }
				4831 = { owned_by = ROOT num_of_times_improved_by_owner = 15 }
			}
			else_if = {
				limit = { dynasty = "Surgoshi" }
				4829 = { owned_by = ROOT num_of_times_improved_by_owner = 15 }
			}
			else_if = {
				limit = { dynasty = "Moguruld" }
				4828 = { owned_by = ROOT num_of_times_improved_by_owner = 15 }
			}
			else_if = {
				limit = { dynasty = "Jishuro" }
				4848 = { owned_by = ROOT num_of_times_improved_by_owner = 15 }
			}
			else = {
				5430 = { owned_by = ROOT num_of_times_improved_by_owner = 15 }
			}
			years_of_income = 1
		}
		
		effect = {
			increase_ruler_adm_effect = yes
			increase_ruler_dip_effect = yes
			increase_ruler_mil_effect = yes
			add_years_of_income = -1
		}
	}
	
	Y01_masterful_tamongor = {
		icon = mission_empire
		position = 18
		required_missions = { Y01_great_shirgrii }
		
		trigger = {
			adm = 5
			dip = 5
			mil = 5
		}
		
		effect = {
			if = {
				limit = { crown_land_share = 95 }
				add_adm_power = 50
				add_dip_power = 50
				add_mil_power = 50
			}
			else = {
				take_estate_land_share_gigantic = { estate = all }
			}
		}
	}
}

azjakuma_missiontree_5_pt_2 = {
	slot = 5
	generic = no
	ai = yes
	potential = {
		tag = Y01
		has_country_flag = oni_demon_empire_mission_unlock
	}
	has_country_shield = yes
	
	Y01_infiltrate_sir = {
		icon = mission_the_covenant
		position = 8
		required_missions = { Y01_way_forward }
		
		provinces_to_highlight = {
			exists = R62
			is_capital_of = R62
		}
		
		trigger = {
			has_spy_network_in = {
				who = R62
				value = 50
			}
			estate_loyalty = {
				estate = estate_chumijemoya
				loyalty = 50
			}
		}
		
		effect = {
			if = {
				limit = { NOT = { 4633 = { country_or_non_sovereign_subject_holds = ROOT } } }
				4633 = {
					add_province_modifier = {
						name = azjakuma_agitated_resistance
						duration = 1825
					}
				}
			}
			else = {
				4633 = {
					add_nationalism = -10
				}
			}
		}
	}
	
	Y01_shamakhad_rethagi = {
		icon = mission_conquer_lanka
		position = 9
		required_missions = { Y01_infiltrate_sir }
		
		provinces_to_highlight = {
			area = sir_area
			NOT = { owned_by = ROOT }
		}
		
		trigger = {
			sir_area = {
				type = all
				owned_by = ROOT
			}
			OR = {
				R78 = { exists = no }
				AND = {
					is_subject_of = Y01
					NOT = { is_subject_of_type = tributary_state }
				}
			}
		}
		
		effect = {
			add_stability_or_adm_power = yes
			country_event = {
				id = flavor_azjakuma.2657
			}
		}
	}
	
	Y01_shamadhan_faithful = {
		icon = mission_pray_light
		position = 10
		required_missions = { Y01_shamakhad_rethagi }
		
		provinces_to_highlight = {
			OR = {
				AND = {
					NOT = { exists = R78 }
					province_id = 4633
					NOT = { religion = lefthand_path }
				}
				AND = {
					exists = R78
					is_capital_of = R78
					R78 = { NOT = { religion = lefthand_path } }
				}
			}
		}
		
		trigger = {
			if = {
				limit = { exists = R78 }
				R78 = {
					is_subject_of = ROOT
					religion = lefthand_path
				}
			}
			else = {
				4633 = {
					religion = lefthand_path
				}
			}
		}
		
		effect = {
			if = {
				limit = { R78 = { is_subject_of = ROOT religion = lefthand_path } }
				R78 = {
					force_converted = no
					add_country_modifier = {
						name = azjakuma_oni_conversion
						duration = 7300
					}
				}
			}
			else = {
				sir_area = {
					limit = { NOT = { religion = lefthand_path } }
					add_province_modifier = {
						name = azjakuma_oni_conversion_province
						duration = 3650
					}
				}
			}
		}
	}
	
	Y01_defence_of_the_temples = {
		icon = mission_fortify_rajputana
		position = 11
		required_missions = { Y01_shamadhan_faithful Y01_yanhe_buffer }
		
		provinces_to_highlight = {
			OR = {
				province_id = 4633
				province_id = 4546
				province_id = 4630
			}
			NOT = {
				AND = {
					OR = {
						has_province_modifier = ruined_temple_complex
						has_province_modifier = corrupted_temple_complex
					}
					has_fort_building_trigger = yes
				}
			}
		}
		
		trigger = {
			4633 = {
				OR = {
					has_province_modifier = ruined_temple_complex
					has_province_modifier = corrupted_temple_complex
				}
				has_fort_building_trigger = yes
			}
			4546 = {
				OR = {
					has_province_modifier = ruined_temple_complex
					has_province_modifier = corrupted_temple_complex
				}
				has_fort_building_trigger = yes
			}
			4630 = {
				OR = {
					has_province_modifier = ruined_temple_complex
					has_province_modifier = corrupted_temple_complex
				}
				has_fort_building_trigger = yes
			}
		}
		
		effect = {
			4633 = {
				add_ogre_minority_size_effect = yes
				add_base_tax = 1
				add_base_production = 1
				add_base_manpower = 1
				add_province_modifier = {
					name = azjakuma_fortified_temple
					duration = -1
				}
			}
			4546 = {
				add_ogre_minority_size_effect = yes
				add_base_tax = 1
				add_base_production = 1
				add_base_manpower = 1
				add_province_modifier = {
					name = azjakuma_fortified_temple
					duration = -1
				}
			}
			4630 = {
				add_ogre_minority_size_effect = yes
				add_base_tax = 1
				add_base_production = 1
				add_base_manpower = 1
				add_province_modifier = {
					name = azjakuma_fortified_temple
					duration = -1
				}
			}
		}
	}
	
	Y01_extracting_fealty = {
		icon = mission_swear_fealty_knight
		position = 12
		required_missions = { Y01_defence_of_the_temples }
		
		provinces_to_highlight = {
			AND = {
				area = sugroltona_area
				NOT = {
					development_in_provinces = {
						value = 54
						area = sugroltona_area
					}
				}
			}
		}
		
		trigger = {
			development_in_provinces = {
				value = 54
				area = sugroltona_area
			}
			estate_loyalty = {
				estate = estate_shinukhorchi
				loyalty = 50
			}
			estate_influence = {
				estate = estate_shinukhorchi
				influence = 40
			}
		}
		
		effect = {
			custom_tooltip = unlock_vassal_acceptance_magic_tooltip
			hidden_effect = {
				set_country_flag = vassal_acceptance_magic_unlocked
			}
		}
	}
	
	Y01_subjugation_of_goblins = {
		icon = mission_have_two_subjects
		position = 14
		required_missions = { Y01_extracting_fealty Y01_xiaodao }
		
		provinces_to_highlight = {
			region = jade_mines_region
			NOT = { country_or_non_sovereign_subject_holds = ROOT }
		}
		
		trigger = {
			#jade march would probably not exist
			jade_mines_region = {
				type = all
				OR = {
					owned_by = ROOT
					owner = {
						is_subject_of = ROOT
						culture_group = goblin
					}
				}
			}
		}
		
		effect = {
			# make jade march a autonomous vassal
			# this should probably be in a event, jade march would probably not exist
			# this would create a new nation, it could change the tag of a goblin subject if one is available ?
			custom_tooltip = goblin_subject_change_religion_and_type_tooltip
			hidden_effect = {
				random_subject_country = {
					limit = { culture_group = goblin }
					change_religion = lefthand_path
					save_event_target_as = goblinSubject
					ROOT = {
						create_subject = {
							subject_type = autonomous_vassal
							subject = PREV
						}
						every_subject_country = {
							limit = {
								culture_group = goblin
								NOT = { tag = event_target:goblinSubject }
							}
							every_owned_province = {
								add_core = event_target:goblinSubject
								remove_core = owner
								cede_province = event_target:goblinSubject
							}
						}
					}
				}
			}
			#jade_mines_region = {
			#	limit = {
			#		OR = {
			#			owned_by = ROOT
			#			owner = {
			#				is_subject_of = ROOT
			#				culture_group = goblin
			#			}
			#		}
			#	}
				# if = {
					# limit = { owner = { is_core = PREV } }
					# add_core = <TAG> # to change with the jade march tag
					# remove_core = ROOT
				# }
				# cede_province = <TAG> # to change with the jade march tag 
			#}
		}
	}
	
	Y01_riches_of_the_jade_mines = {
		icon = mission_frozen_star
		position = 15
		required_missions = { Y01_subjugation_of_goblins }
		
		provinces_to_highlight = {
			region = jade_mines_region
			OR = {
				trade_goods = copper
				trade_goods = iron
				trade_goods = gold
				trade_goods = mithril
			}
			country_or_non_sovereign_subject_holds = ROOT
			NOT = { development = 12 }
		}
		
		trigger = {
			any_subject_country = { # #change with the jade march tag - I think it would make more sense to have the goblin march own this provinces
				num_of_owned_provinces_with = {
					value = 5
					region = jade_mines_region
					OR = {
						trade_goods = copper
						trade_goods = iron
						trade_goods = gold
						trade_goods = mithril
					}
					development = 12
				}
			}
		}
		
		effect = {
			capital_scope = { 
				add_permanent_province_modifier = { name = azjakuma_senukagrii_main_level_1 duration = -1 }
			}
		}
	}

	Y01_goblinic_followers = {
		icon = mission_jawal_silver_mine
		position = 16
		required_missions = { Y01_riches_of_the_jade_mines }
		
		provinces_to_highlight = {
			region = jade_mines_region
			NOT = { religion = lefthand_path }
			NOT = { has_terrain = cavern }
		}
		
		trigger = {
			calc_true_if = {
				amount = 22
				jade_mines_region = {
					type = all
					religion = lefthand_path
					NOT = { has_terrain = cavern }
				}
			}
			years_of_income = 4
		}
		
		effect = {
			add_years_of_income = -4
			tooltip = {
				if = {
					limit = {
						5430 = { has_province_modifier = azjakuma_senukagrii_main_level_1 }
					}
					5430 = { add_permanent_province_modifier = { name = azjakuma_senukagrii_main_level_2 duration = -1 } }
				}
				else_if = {
					limit = {
						4831 = { has_province_modifier = azjakuma_senukagrii_main_level_1 }
					}
					4831 = { add_permanent_province_modifier = { name = azjakuma_senukagrii_main_level_2 duration = -1 } }
				}
				else_if = {
					limit = {
						4829 = { has_province_modifier = azjakuma_senukagrii_main_level_1 }
					}
					4829 = { add_permanent_province_modifier = { name = azjakuma_senukagrii_main_level_2 duration = -1 } }
				}
				else_if = {
					limit = {
						4828 = { has_province_modifier = azjakuma_senukagrii_main_level_1 }
					}
					4828 = { add_permanent_province_modifier = { name = azjakuma_senukagrii_main_level_2 duration = -1 } }
				}
				else_if = {
					limit = {
						4848 = { has_province_modifier = azjakuma_senukagrii_main_level_1 }
					}
					4848 = { add_permanent_province_modifier = { name = azjakuma_senukagrii_main_level_2 duration = -1 } }
				}
				else_if = {
					limit = {
						any_owned_province = { has_province_modifier = azjakuma_senukagrii_main_level_1 }
					}
					random_owned_province = {
						limit = { has_province_modifier = azjakuma_senukagrii_main_level_1 }
						add_permanent_province_modifier = { name = azjakuma_senukagrii_main_level_2 duration = -1 }
					}
				}
				else = {
					capital_scope = { add_permanent_province_modifier = { name = azjakuma_senukagrii_main_level_2 duration = -1 } }
				}
			}
			hidden_effect = {
				random_owned_province = {
					limit = { has_province_modifier = azjakuma_senukagrii_main_level_1 }
					remove_province_modifier = azjakuma_senukagrii_main_level_1
					add_permanent_province_modifier = { name = azjakuma_senukagrii_main_level_2 duration = -1 }
				}
			}
		}
	}
}